%YAML 1.1
%TAG !u! tag:unity3d.com,2011:
--- !u!29 &1
OcclusionCullingSettings:
  m_ObjectHideFlags: 0
  serializedVersion: 2
  m_OcclusionBakeSettings:
    smallestOccluder: 5
    smallestHole: 0.25
    backfaceThreshold: 100
  m_SceneGUID: 00000000000000000000000000000000
  m_OcclusionCullingData: {fileID: 0}
--- !u!104 &2
RenderSettings:
  m_ObjectHideFlags: 0
  serializedVersion: 9
  m_Fog: 0
  m_FogColor: {r: 0.5, g: 0.5, b: 0.5, a: 1}
  m_FogMode: 3
  m_FogDensity: 0.01
  m_LinearFogStart: 0
  m_LinearFogEnd: 300
  m_AmbientSkyColor: {r: 0.212, g: 0.227, b: 0.259, a: 1}
  m_AmbientEquatorColor: {r: 0.114, g: 0.125, b: 0.133, a: 1}
  m_AmbientGroundColor: {r: 0.047, g: 0.043, b: 0.035, a: 1}
  m_AmbientIntensity: 1
  m_AmbientMode: 0
  m_SubtractiveShadowColor: {r: 0.42, g: 0.478, b: 0.627, a: 1}
  m_SkyboxMaterial: {fileID: 10304, guid: 0000000000000000f000000000000000, type: 0}
  m_HaloStrength: 0.5
  m_FlareStrength: 1
  m_FlareFadeSpeed: 3
  m_HaloTexture: {fileID: 0}
  m_SpotCookie: {fileID: 10001, guid: 0000000000000000e000000000000000, type: 0}
  m_DefaultReflectionMode: 0
  m_DefaultReflectionResolution: 128
  m_ReflectionBounces: 1
  m_ReflectionIntensity: 1
  m_CustomReflection: {fileID: 0}
  m_Sun: {fileID: 0}
  m_IndirectSpecularColor: {r: 0, g: 0, b: 0, a: 1}
  m_UseRadianceAmbientProbe: 0
--- !u!157 &3
LightmapSettings:
  m_ObjectHideFlags: 0
  serializedVersion: 11
  m_GIWorkflowMode: 1
  m_GISettings:
    serializedVersion: 2
    m_BounceScale: 1
    m_IndirectOutputScale: 1
    m_AlbedoBoost: 1
    m_EnvironmentLightingMode: 0
    m_EnableBakedLightmaps: 1
    m_EnableRealtimeLightmaps: 1
  m_LightmapEditorSettings:
    serializedVersion: 12
    m_Resolution: 2
    m_BakeResolution: 40
    m_AtlasSize: 1024
    m_AO: 0
    m_AOMaxDistance: 1
    m_CompAOExponent: 1
    m_CompAOExponentDirect: 0
    m_ExtractAmbientOcclusion: 0
    m_Padding: 2
    m_LightmapParameters: {fileID: 0}
    m_LightmapsBakeMode: 1
    m_TextureCompression: 1
    m_FinalGather: 0
    m_FinalGatherFiltering: 1
    m_FinalGatherRayCount: 256
    m_ReflectionCompression: 2
    m_MixedBakeMode: 1
    m_BakeBackend: 0
    m_PVRSampling: 1
    m_PVRDirectSampleCount: 32
    m_PVRSampleCount: 512
    m_PVRBounces: 2
    m_PVREnvironmentSampleCount: 512
    m_PVREnvironmentReferencePointCount: 2048
    m_PVRFilteringMode: 0
    m_PVRDenoiserTypeDirect: 0
    m_PVRDenoiserTypeIndirect: 0
    m_PVRDenoiserTypeAO: 0
    m_PVRFilterTypeDirect: 0
    m_PVRFilterTypeIndirect: 0
    m_PVRFilterTypeAO: 0
    m_PVREnvironmentMIS: 0
    m_PVRCulling: 1
    m_PVRFilteringGaussRadiusDirect: 1
    m_PVRFilteringGaussRadiusIndirect: 5
    m_PVRFilteringGaussRadiusAO: 2
    m_PVRFilteringAtrousPositionSigmaDirect: 0.5
    m_PVRFilteringAtrousPositionSigmaIndirect: 2
    m_PVRFilteringAtrousPositionSigmaAO: 1
    m_ExportTrainingData: 0
    m_TrainingDataDestination: TrainingData
    m_LightProbeSampleCountMultiplier: 4
  m_LightingDataAsset: {fileID: 0}
  m_UseShadowmask: 0
--- !u!196 &4
NavMeshSettings:
  serializedVersion: 2
  m_ObjectHideFlags: 0
  m_BuildSettings:
    serializedVersion: 2
    agentTypeID: 0
    agentRadius: 0.5
    agentHeight: 2
    agentSlope: 45
    agentClimb: 0.4
    ledgeDropHeight: 0
    maxJumpAcrossDistance: 0
    minRegionArea: 2
    manualCellSize: 0
    cellSize: 0.16666667
    manualTileSize: 0
    tileSize: 256
    accuratePlacement: 0
    debug:
      m_Flags: 0
  m_NavMeshData: {fileID: 0}
--- !u!1001 &195093031
PrefabInstance:
  m_ObjectHideFlags: 0
  serializedVersion: 2
  m_Modification:
    m_TransformParent: {fileID: 426132720}
    m_Modifications:
    - target: {fileID: 4563474872982284, guid: 4544a0659b11944ec9e0d388f27d9118, type: 3}
      propertyPath: m_LocalPosition.x
      value: 54
      objectReference: {fileID: 0}
    - target: {fileID: 4563474872982284, guid: 4544a0659b11944ec9e0d388f27d9118, type: 3}
      propertyPath: m_LocalPosition.y
      value: 0
      objectReference: {fileID: 0}
    - target: {fileID: 4563474872982284, guid: 4544a0659b11944ec9e0d388f27d9118, type: 3}
      propertyPath: m_LocalPosition.z
      value: 0
      objectReference: {fileID: 0}
    - target: {fileID: 4563474872982284, guid: 4544a0659b11944ec9e0d388f27d9118, type: 3}
      propertyPath: m_LocalRotation.x
      value: -0
      objectReference: {fileID: 0}
    - target: {fileID: 4563474872982284, guid: 4544a0659b11944ec9e0d388f27d9118, type: 3}
      propertyPath: m_LocalRotation.y
      value: -0
      objectReference: {fileID: 0}
    - target: {fileID: 4563474872982284, guid: 4544a0659b11944ec9e0d388f27d9118, type: 3}
      propertyPath: m_LocalRotation.z
      value: -0
      objectReference: {fileID: 0}
    - target: {fileID: 4563474872982284, guid: 4544a0659b11944ec9e0d388f27d9118, type: 3}
      propertyPath: m_LocalRotation.w
      value: 1
      objectReference: {fileID: 0}
    - target: {fileID: 4563474872982284, guid: 4544a0659b11944ec9e0d388f27d9118, type: 3}
      propertyPath: m_RootOrder
      value: 6
      objectReference: {fileID: 0}
    m_RemovedComponents: []
  m_SourcePrefab: {fileID: 100100000, guid: 4544a0659b11944ec9e0d388f27d9118, type: 3}
--- !u!4 &195093032 stripped
Transform:
  m_CorrespondingSourceObject: {fileID: 4563474872982284, guid: 4544a0659b11944ec9e0d388f27d9118,
    type: 3}
  m_PrefabInstance: {fileID: 195093031}
  m_PrefabAsset: {fileID: 0}
--- !u!1001 &232154345
PrefabInstance:
  m_ObjectHideFlags: 0
  serializedVersion: 2
  m_Modification:
    m_TransformParent: {fileID: 426132720}
    m_Modifications:
    - target: {fileID: 4290544097961974, guid: 655202bf9bf874e1ba89df07a7858bbb, type: 3}
      propertyPath: m_LocalPosition.x
      value: 36
      objectReference: {fileID: 0}
    - target: {fileID: 4290544097961974, guid: 655202bf9bf874e1ba89df07a7858bbb, type: 3}
      propertyPath: m_LocalPosition.y
      value: 0
      objectReference: {fileID: 0}
    - target: {fileID: 4290544097961974, guid: 655202bf9bf874e1ba89df07a7858bbb, type: 3}
      propertyPath: m_LocalPosition.z
      value: 0
      objectReference: {fileID: 0}
    - target: {fileID: 4290544097961974, guid: 655202bf9bf874e1ba89df07a7858bbb, type: 3}
      propertyPath: m_LocalRotation.x
      value: -0
      objectReference: {fileID: 0}
    - target: {fileID: 4290544097961974, guid: 655202bf9bf874e1ba89df07a7858bbb, type: 3}
      propertyPath: m_LocalRotation.y
      value: 1
      objectReference: {fileID: 0}
    - target: {fileID: 4290544097961974, guid: 655202bf9bf874e1ba89df07a7858bbb, type: 3}
      propertyPath: m_LocalRotation.z
      value: -0
      objectReference: {fileID: 0}
    - target: {fileID: 4290544097961974, guid: 655202bf9bf874e1ba89df07a7858bbb, type: 3}
      propertyPath: m_LocalRotation.w
      value: 0
      objectReference: {fileID: 0}
    - target: {fileID: 4290544097961974, guid: 655202bf9bf874e1ba89df07a7858bbb, type: 3}
      propertyPath: m_RootOrder
      value: 5
      objectReference: {fileID: 0}
    - target: {fileID: 4290544097961974, guid: 655202bf9bf874e1ba89df07a7858bbb, type: 3}
      propertyPath: m_LocalEulerAnglesHint.y
      value: 180
      objectReference: {fileID: 0}
    m_RemovedComponents: []
  m_SourcePrefab: {fileID: 100100000, guid: 655202bf9bf874e1ba89df07a7858bbb, type: 3}
--- !u!4 &232154346 stripped
Transform:
  m_CorrespondingSourceObject: {fileID: 4290544097961974, guid: 655202bf9bf874e1ba89df07a7858bbb,
    type: 3}
  m_PrefabInstance: {fileID: 232154345}
  m_PrefabAsset: {fileID: 0}
--- !u!1001 &234449217
PrefabInstance:
  m_ObjectHideFlags: 0
  serializedVersion: 2
  m_Modification:
    m_TransformParent: {fileID: 426132720}
    m_Modifications:
    - target: {fileID: 4631888826307146, guid: 37c3f332c16484799ac2dea44c31446b, type: 3}
      propertyPath: m_LocalPosition.x
      value: 0
      objectReference: {fileID: 0}
    - target: {fileID: 4631888826307146, guid: 37c3f332c16484799ac2dea44c31446b, type: 3}
      propertyPath: m_LocalPosition.y
      value: 0
      objectReference: {fileID: 0}
    - target: {fileID: 4631888826307146, guid: 37c3f332c16484799ac2dea44c31446b, type: 3}
      propertyPath: m_LocalPosition.z
      value: 0
      objectReference: {fileID: 0}
    - target: {fileID: 4631888826307146, guid: 37c3f332c16484799ac2dea44c31446b, type: 3}
      propertyPath: m_LocalRotation.x
      value: -0
      objectReference: {fileID: 0}
    - target: {fileID: 4631888826307146, guid: 37c3f332c16484799ac2dea44c31446b, type: 3}
      propertyPath: m_LocalRotation.y
      value: 1
      objectReference: {fileID: 0}
    - target: {fileID: 4631888826307146, guid: 37c3f332c16484799ac2dea44c31446b, type: 3}
      propertyPath: m_LocalRotation.z
      value: -0
      objectReference: {fileID: 0}
    - target: {fileID: 4631888826307146, guid: 37c3f332c16484799ac2dea44c31446b, type: 3}
      propertyPath: m_LocalRotation.w
      value: 0
      objectReference: {fileID: 0}
    - target: {fileID: 4631888826307146, guid: 37c3f332c16484799ac2dea44c31446b, type: 3}
      propertyPath: m_RootOrder
      value: 0
      objectReference: {fileID: 0}
    - target: {fileID: 4631888826307146, guid: 37c3f332c16484799ac2dea44c31446b, type: 3}
      propertyPath: m_LocalEulerAnglesHint.y
      value: 180
      objectReference: {fileID: 0}
    m_RemovedComponents: []
  m_SourcePrefab: {fileID: 100100000, guid: 37c3f332c16484799ac2dea44c31446b, type: 3}
--- !u!4 &234449218 stripped
Transform:
  m_CorrespondingSourceObject: {fileID: 4631888826307146, guid: 37c3f332c16484799ac2dea44c31446b,
    type: 3}
  m_PrefabInstance: {fileID: 234449217}
  m_PrefabAsset: {fileID: 0}
--- !u!1 &426132719
GameObject:
  m_ObjectHideFlags: 0
  m_CorrespondingSourceObject: {fileID: 0}
  m_PrefabInstance: {fileID: 0}
  m_PrefabAsset: {fileID: 0}
  serializedVersion: 6
  m_Component:
  - component: {fileID: 426132720}
  m_Layer: 0
  m_Name: Prefabs
  m_TagString: Untagged
  m_Icon: {fileID: 0}
  m_NavMeshLayer: 0
  m_StaticEditorFlags: 0
  m_IsActive: 1
--- !u!4 &426132720
Transform:
  m_ObjectHideFlags: 0
  m_CorrespondingSourceObject: {fileID: 0}
  m_PrefabInstance: {fileID: 0}
  m_PrefabAsset: {fileID: 0}
  m_GameObject: {fileID: 426132719}
  m_LocalRotation: {x: 0, y: 0, z: 0, w: 1}
  m_LocalPosition: {x: 0, y: 0, z: 0}
  m_LocalScale: {x: 1, y: 1, z: 1}
  m_Children:
  - {fileID: 234449218}
  - {fileID: 1896076819}
  - {fileID: 1305813364}
  - {fileID: 662594350}
  - {fileID: 544469567}
  - {fileID: 232154346}
  - {fileID: 195093032}
  - {fileID: 1572570397}
  - {fileID: 1519404169}
  - {fileID: 1993938506}
  - {fileID: 1268102048}
  - {fileID: 2124615161}
  m_Father: {fileID: 0}
  m_RootOrder: 3
  m_LocalEulerAnglesHint: {x: 0, y: 0, z: 0}
--- !u!1001 &544469566
PrefabInstance:
  m_ObjectHideFlags: 0
  serializedVersion: 2
  m_Modification:
    m_TransformParent: {fileID: 426132720}
    m_Modifications:
    - target: {fileID: 4418049690190814, guid: c9cb46cae144644c2b44b135b8562a8f, type: 3}
      propertyPath: m_LocalPosition.x
      value: 57
      objectReference: {fileID: 0}
    - target: {fileID: 4418049690190814, guid: c9cb46cae144644c2b44b135b8562a8f, type: 3}
      propertyPath: m_LocalPosition.y
      value: 0
      objectReference: {fileID: 0}
    - target: {fileID: 4418049690190814, guid: c9cb46cae144644c2b44b135b8562a8f, type: 3}
      propertyPath: m_LocalPosition.z
      value: -25
      objectReference: {fileID: 0}
    - target: {fileID: 4418049690190814, guid: c9cb46cae144644c2b44b135b8562a8f, type: 3}
      propertyPath: m_LocalRotation.x
      value: -0
      objectReference: {fileID: 0}
    - target: {fileID: 4418049690190814, guid: c9cb46cae144644c2b44b135b8562a8f, type: 3}
      propertyPath: m_LocalRotation.y
      value: -0
      objectReference: {fileID: 0}
    - target: {fileID: 4418049690190814, guid: c9cb46cae144644c2b44b135b8562a8f, type: 3}
      propertyPath: m_LocalRotation.z
      value: -0
      objectReference: {fileID: 0}
    - target: {fileID: 4418049690190814, guid: c9cb46cae144644c2b44b135b8562a8f, type: 3}
      propertyPath: m_LocalRotation.w
      value: 1
      objectReference: {fileID: 0}
    - target: {fileID: 4418049690190814, guid: c9cb46cae144644c2b44b135b8562a8f, type: 3}
      propertyPath: m_RootOrder
      value: 4
      objectReference: {fileID: 0}
    m_RemovedComponents: []
  m_SourcePrefab: {fileID: 100100000, guid: c9cb46cae144644c2b44b135b8562a8f, type: 3}
--- !u!4 &544469567 stripped
Transform:
  m_CorrespondingSourceObject: {fileID: 4418049690190814, guid: c9cb46cae144644c2b44b135b8562a8f,
    type: 3}
  m_PrefabInstance: {fileID: 544469566}
  m_PrefabAsset: {fileID: 0}
--- !u!1001 &662594349
PrefabInstance:
  m_ObjectHideFlags: 0
  serializedVersion: 2
  m_Modification:
    m_TransformParent: {fileID: 426132720}
    m_Modifications:
    - target: {fileID: 4945656997075942, guid: ab577bf95fd0e4a45a861bf583ceb5c2, type: 3}
      propertyPath: m_LocalPosition.x
      value: 18
      objectReference: {fileID: 0}
    - target: {fileID: 4945656997075942, guid: ab577bf95fd0e4a45a861bf583ceb5c2, type: 3}
      propertyPath: m_LocalPosition.y
      value: 0
      objectReference: {fileID: 0}
    - target: {fileID: 4945656997075942, guid: ab577bf95fd0e4a45a861bf583ceb5c2, type: 3}
      propertyPath: m_LocalPosition.z
      value: 0
      objectReference: {fileID: 0}
    - target: {fileID: 4945656997075942, guid: ab577bf95fd0e4a45a861bf583ceb5c2, type: 3}
      propertyPath: m_LocalRotation.x
      value: -0
      objectReference: {fileID: 0}
    - target: {fileID: 4945656997075942, guid: ab577bf95fd0e4a45a861bf583ceb5c2, type: 3}
      propertyPath: m_LocalRotation.y
      value: 1
      objectReference: {fileID: 0}
    - target: {fileID: 4945656997075942, guid: ab577bf95fd0e4a45a861bf583ceb5c2, type: 3}
      propertyPath: m_LocalRotation.z
      value: -0
      objectReference: {fileID: 0}
    - target: {fileID: 4945656997075942, guid: ab577bf95fd0e4a45a861bf583ceb5c2, type: 3}
      propertyPath: m_LocalRotation.w
      value: 0
      objectReference: {fileID: 0}
    - target: {fileID: 4945656997075942, guid: ab577bf95fd0e4a45a861bf583ceb5c2, type: 3}
      propertyPath: m_RootOrder
      value: 3
      objectReference: {fileID: 0}
    - target: {fileID: 4945656997075942, guid: ab577bf95fd0e4a45a861bf583ceb5c2, type: 3}
      propertyPath: m_LocalEulerAnglesHint.y
      value: 180
      objectReference: {fileID: 0}
    m_RemovedComponents: []
  m_SourcePrefab: {fileID: 100100000, guid: ab577bf95fd0e4a45a861bf583ceb5c2, type: 3}
--- !u!4 &662594350 stripped
Transform:
  m_CorrespondingSourceObject: {fileID: 4945656997075942, guid: ab577bf95fd0e4a45a861bf583ceb5c2,
    type: 3}
  m_PrefabInstance: {fileID: 662594349}
  m_PrefabAsset: {fileID: 0}
--- !u!1 &665422342
GameObject:
  m_ObjectHideFlags: 0
  m_CorrespondingSourceObject: {fileID: 0}
  m_PrefabInstance: {fileID: 0}
  m_PrefabAsset: {fileID: 0}
  serializedVersion: 6
  m_Component:
  - component: {fileID: 665422346}
  - component: {fileID: 665422345}
  - component: {fileID: 665422344}
  - component: {fileID: 665422343}
  m_Layer: 0
  m_Name: Plane
  m_TagString: Untagged
  m_Icon: {fileID: 0}
  m_NavMeshLayer: 0
  m_StaticEditorFlags: 0
  m_IsActive: 1
--- !u!23 &665422343
MeshRenderer:
  m_ObjectHideFlags: 0
  m_CorrespondingSourceObject: {fileID: 0}
  m_PrefabInstance: {fileID: 0}
  m_PrefabAsset: {fileID: 0}
  m_GameObject: {fileID: 665422342}
  m_Enabled: 1
  m_CastShadows: 1
  m_ReceiveShadows: 1
  m_DynamicOccludee: 1
  m_MotionVectors: 1
  m_LightProbeUsage: 1
  m_ReflectionProbeUsage: 1
  m_RayTracingMode: 2
  m_RenderingLayerMask: 1
  m_RendererPriority: 0
  m_Materials:
  - {fileID: 2100000, guid: 36e6590e92ce44b67ac0b881a39fe147, type: 2}
  m_StaticBatchInfo:
    firstSubMesh: 0
    subMeshCount: 0
  m_StaticBatchRoot: {fileID: 0}
  m_ProbeAnchor: {fileID: 0}
  m_LightProbeVolumeOverride: {fileID: 0}
  m_ScaleInLightmap: 1
  m_ReceiveGI: 1
  m_PreserveUVs: 1
  m_IgnoreNormalsForChartDetection: 0
  m_ImportantGI: 0
  m_StitchLightmapSeams: 1
  m_SelectedEditorRenderState: 3
  m_MinimumChartSize: 4
  m_AutoUVMaxDistance: 0.5
  m_AutoUVMaxAngle: 89
  m_LightmapParameters: {fileID: 0}
  m_SortingLayerID: 0
  m_SortingLayer: 0
  m_SortingOrder: 0
--- !u!64 &665422344
MeshCollider:
  m_ObjectHideFlags: 0
  m_CorrespondingSourceObject: {fileID: 0}
  m_PrefabInstance: {fileID: 0}
  m_PrefabAsset: {fileID: 0}
  m_GameObject: {fileID: 665422342}
  m_Material: {fileID: 0}
  m_IsTrigger: 0
  m_Enabled: 1
  serializedVersion: 3
  m_Convex: 0
  m_CookingOptions: 30
  m_Mesh: {fileID: 10209, guid: 0000000000000000e000000000000000, type: 0}
--- !u!33 &665422345
MeshFilter:
  m_ObjectHideFlags: 0
  m_CorrespondingSourceObject: {fileID: 0}
  m_PrefabInstance: {fileID: 0}
  m_PrefabAsset: {fileID: 0}
  m_GameObject: {fileID: 665422342}
  m_Mesh: {fileID: 10209, guid: 0000000000000000e000000000000000, type: 0}
--- !u!4 &665422346
Transform:
  m_ObjectHideFlags: 0
  m_CorrespondingSourceObject: {fileID: 0}
  m_PrefabInstance: {fileID: 0}
  m_PrefabAsset: {fileID: 0}
  m_GameObject: {fileID: 665422342}
  m_LocalRotation: {x: 0, y: 0, z: 0, w: 1}
  m_LocalPosition: {x: 0, y: 0, z: 0}
  m_LocalScale: {x: 200, y: 200, z: 200}
  m_Children: []
  m_Father: {fileID: 0}
  m_RootOrder: 2
  m_LocalEulerAnglesHint: {x: 0, y: 0, z: 0}
--- !u!1 &731182350
GameObject:
  m_ObjectHideFlags: 0
  m_CorrespondingSourceObject: {fileID: 0}
  m_PrefabInstance: {fileID: 0}
  m_PrefabAsset: {fileID: 0}
  serializedVersion: 6
  m_Component:
  - component: {fileID: 731182352}
  - component: {fileID: 731182351}
  m_Layer: 0
  m_Name: Directional Light
  m_TagString: Untagged
  m_Icon: {fileID: 0}
  m_NavMeshLayer: 0
  m_StaticEditorFlags: 0
  m_IsActive: 1
--- !u!108 &731182351
Light:
  m_ObjectHideFlags: 0
  m_CorrespondingSourceObject: {fileID: 0}
  m_PrefabInstance: {fileID: 0}
  m_PrefabAsset: {fileID: 0}
  m_GameObject: {fileID: 731182350}
  m_Enabled: 1
  serializedVersion: 10
  m_Type: 1
  m_Shape: 0
  m_Color: {r: 1, g: 0.95686275, b: 0.8392157, a: 1}
  m_Intensity: 1
  m_Range: 10
  m_SpotAngle: 30
  m_InnerSpotAngle: 21.80208
  m_CookieSize: 10
  m_Shadows:
    m_Type: 2
    m_Resolution: -1
    m_CustomResolution: -1
    m_Strength: 1
    m_Bias: 0.05
    m_NormalBias: 0.4
    m_NearPlane: 0.2
    m_CullingMatrixOverride:
      e00: 1
      e01: 0
      e02: 0
      e03: 0
      e10: 0
      e11: 1
      e12: 0
      e13: 0
      e20: 0
      e21: 0
      e22: 1
      e23: 0
      e30: 0
      e31: 0
      e32: 0
      e33: 1
    m_UseCullingMatrixOverride: 0
  m_Cookie: {fileID: 0}
  m_DrawHalo: 0
  m_Flare: {fileID: 0}
  m_RenderMode: 0
  m_CullingMask:
    serializedVersion: 2
    m_Bits: 4294967295
  m_RenderingLayerMask: 1
  m_Lightmapping: 4
  m_LightShadowCasterMode: 0
  m_AreaSize: {x: 1, y: 1}
  m_BounceIntensity: 1
  m_ColorTemperature: 6570
  m_UseColorTemperature: 0
  m_BoundingSphereOverride: {x: 0, y: 0, z: 0, w: 0}
  m_UseBoundingSphereOverride: 0
  m_ShadowRadius: 0
  m_ShadowAngle: 0
--- !u!4 &731182352
Transform:
  m_ObjectHideFlags: 0
  m_CorrespondingSourceObject: {fileID: 0}
  m_PrefabInstance: {fileID: 0}
  m_PrefabAsset: {fileID: 0}
  m_GameObject: {fileID: 731182350}
  m_LocalRotation: {x: 0.40821788, y: -0.23456968, z: 0.10938163, w: 0.8754261}
  m_LocalPosition: {x: 0, y: 3, z: 0}
  m_LocalScale: {x: 1, y: 1, z: 1}
  m_Children: []
  m_Father: {fileID: 0}
  m_RootOrder: 1
  m_LocalEulerAnglesHint: {x: 50, y: -30, z: 0}
--- !u!1001 &1268102047
PrefabInstance:
  m_ObjectHideFlags: 0
  serializedVersion: 2
  m_Modification:
    m_TransformParent: {fileID: 426132720}
    m_Modifications:
    - target: {fileID: 4549252706128996, guid: e1a210aa2f02e4273b49f5c1398e75a2, type: 3}
      propertyPath: m_LocalPosition.x
      value: 36
      objectReference: {fileID: 0}
    - target: {fileID: 4549252706128996, guid: e1a210aa2f02e4273b49f5c1398e75a2, type: 3}
      propertyPath: m_LocalPosition.y
      value: 0
      objectReference: {fileID: 0}
    - target: {fileID: 4549252706128996, guid: e1a210aa2f02e4273b49f5c1398e75a2, type: 3}
      propertyPath: m_LocalPosition.z
      value: -25
      objectReference: {fileID: 0}
    - target: {fileID: 4549252706128996, guid: e1a210aa2f02e4273b49f5c1398e75a2, type: 3}
      propertyPath: m_LocalRotation.x
      value: -0
      objectReference: {fileID: 0}
    - target: {fileID: 4549252706128996, guid: e1a210aa2f02e4273b49f5c1398e75a2, type: 3}
      propertyPath: m_LocalRotation.y
      value: 1
      objectReference: {fileID: 0}
    - target: {fileID: 4549252706128996, guid: e1a210aa2f02e4273b49f5c1398e75a2, type: 3}
      propertyPath: m_LocalRotation.z
      value: -0
      objectReference: {fileID: 0}
    - target: {fileID: 4549252706128996, guid: e1a210aa2f02e4273b49f5c1398e75a2, type: 3}
      propertyPath: m_LocalRotation.w
      value: 0
      objectReference: {fileID: 0}
    - target: {fileID: 4549252706128996, guid: e1a210aa2f02e4273b49f5c1398e75a2, type: 3}
      propertyPath: m_RootOrder
      value: 10
      objectReference: {fileID: 0}
    - target: {fileID: 4549252706128996, guid: e1a210aa2f02e4273b49f5c1398e75a2, type: 3}
      propertyPath: m_LocalEulerAnglesHint.y
      value: 180
      objectReference: {fileID: 0}
    m_RemovedComponents: []
  m_SourcePrefab: {fileID: 100100000, guid: e1a210aa2f02e4273b49f5c1398e75a2, type: 3}
--- !u!4 &1268102048 stripped
Transform:
  m_CorrespondingSourceObject: {fileID: 4549252706128996, guid: e1a210aa2f02e4273b49f5c1398e75a2,
    type: 3}
  m_PrefabInstance: {fileID: 1268102047}
  m_PrefabAsset: {fileID: 0}
--- !u!1001 &1305813363
PrefabInstance:
  m_ObjectHideFlags: 0
  serializedVersion: 2
  m_Modification:
    m_TransformParent: {fileID: 426132720}
    m_Modifications:
    - target: {fileID: 4345935540292380, guid: 5ac91b60634ac447c9eceb8e92102b46, type: 3}
      propertyPath: m_LocalPosition.x
      value: 76
      objectReference: {fileID: 0}
    - target: {fileID: 4345935540292380, guid: 5ac91b60634ac447c9eceb8e92102b46, type: 3}
      propertyPath: m_LocalPosition.y
      value: 0
      objectReference: {fileID: 0}
    - target: {fileID: 4345935540292380, guid: 5ac91b60634ac447c9eceb8e92102b46, type: 3}
      propertyPath: m_LocalPosition.z
      value: 0
      objectReference: {fileID: 0}
    - target: {fileID: 4345935540292380, guid: 5ac91b60634ac447c9eceb8e92102b46, type: 3}
      propertyPath: m_LocalRotation.x
      value: -0
      objectReference: {fileID: 0}
    - target: {fileID: 4345935540292380, guid: 5ac91b60634ac447c9eceb8e92102b46, type: 3}
      propertyPath: m_LocalRotation.y
      value: -0
      objectReference: {fileID: 0}
    - target: {fileID: 4345935540292380, guid: 5ac91b60634ac447c9eceb8e92102b46, type: 3}
      propertyPath: m_LocalRotation.z
      value: -0
      objectReference: {fileID: 0}
    - target: {fileID: 4345935540292380, guid: 5ac91b60634ac447c9eceb8e92102b46, type: 3}
      propertyPath: m_LocalRotation.w
      value: 1
      objectReference: {fileID: 0}
    - target: {fileID: 4345935540292380, guid: 5ac91b60634ac447c9eceb8e92102b46, type: 3}
      propertyPath: m_RootOrder
      value: 2
      objectReference: {fileID: 0}
    m_RemovedComponents: []
  m_SourcePrefab: {fileID: 100100000, guid: 5ac91b60634ac447c9eceb8e92102b46, type: 3}
--- !u!4 &1305813364 stripped
Transform:
  m_CorrespondingSourceObject: {fileID: 4345935540292380, guid: 5ac91b60634ac447c9eceb8e92102b46,
    type: 3}
  m_PrefabInstance: {fileID: 1305813363}
  m_PrefabAsset: {fileID: 0}
--- !u!1 &1336842166
GameObject:
  m_ObjectHideFlags: 0
  m_CorrespondingSourceObject: {fileID: 0}
  m_PrefabInstance: {fileID: 0}
  m_PrefabAsset: {fileID: 0}
  serializedVersion: 6
  m_Component:
  - component: {fileID: 1336842171}
  - component: {fileID: 1336842170}
  - component: {fileID: 1336842168}
  - component: {fileID: 1336842167}
  m_Layer: 0
  m_Name: Main Camera
  m_TagString: MainCamera
  m_Icon: {fileID: 0}
  m_NavMeshLayer: 0
  m_StaticEditorFlags: 0
  m_IsActive: 1
--- !u!81 &1336842167
AudioListener:
  m_ObjectHideFlags: 0
  m_CorrespondingSourceObject: {fileID: 0}
  m_PrefabInstance: {fileID: 0}
  m_PrefabAsset: {fileID: 0}
  m_GameObject: {fileID: 1336842166}
  m_Enabled: 1
--- !u!124 &1336842168
Behaviour:
  m_ObjectHideFlags: 0
  m_CorrespondingSourceObject: {fileID: 0}
  m_PrefabInstance: {fileID: 0}
  m_PrefabAsset: {fileID: 0}
  m_GameObject: {fileID: 1336842166}
  m_Enabled: 1
--- !u!20 &1336842170
Camera:
  m_ObjectHideFlags: 0
  m_CorrespondingSourceObject: {fileID: 0}
  m_PrefabInstance: {fileID: 0}
  m_PrefabAsset: {fileID: 0}
  m_GameObject: {fileID: 1336842166}
  m_Enabled: 1
  serializedVersion: 2
  m_ClearFlags: 1
  m_BackGroundColor: {r: 0.19215687, g: 0.3019608, b: 0.4745098, a: 0}
  m_projectionMatrixMode: 1
  m_GateFitMode: 2
  m_FOVAxisMode: 0
  m_SensorSize: {x: 36, y: 24}
  m_LensShift: {x: 0, y: 0}
  m_FocalLength: 50
  m_NormalizedViewPortRect:
    serializedVersion: 2
    x: 0
    y: 0
    width: 1
    height: 1
  near clip plane: 0.3
  far clip plane: 1000
  field of view: 60
  orthographic: 0
  orthographic size: 5
  m_Depth: -1
  m_CullingMask:
    serializedVersion: 2
    m_Bits: 4294967295
  m_RenderingPath: -1
  m_TargetTexture: {fileID: 0}
  m_TargetDisplay: 0
  m_TargetEye: 3
  m_HDR: 0
  m_AllowMSAA: 1
  m_AllowDynamicResolution: 0
  m_ForceIntoRT: 0
  m_OcclusionCulling: 1
  m_StereoConvergence: 10
  m_StereoSeparation: 0.022
--- !u!4 &1336842171
Transform:
  m_ObjectHideFlags: 0
  m_CorrespondingSourceObject: {fileID: 0}
  m_PrefabInstance: {fileID: 0}
  m_PrefabAsset: {fileID: 0}
  m_GameObject: {fileID: 1336842166}
  m_LocalRotation: {x: -0.25610423, y: -0.21470883, z: 0.05845444, w: -0.940688}
  m_LocalPosition: {x: 8.439381, y: 37.33742, z: -73.97157}
  m_LocalScale: {x: 1, y: 1, z: 1}
  m_Children: []
  m_Father: {fileID: 0}
  m_RootOrder: 0
  m_LocalEulerAnglesHint: {x: 0, y: 0, z: 0}
--- !u!1001 &1519404168
PrefabInstance:
  m_ObjectHideFlags: 0
  serializedVersion: 2
  m_Modification:
    m_TransformParent: {fileID: 426132720}
    m_Modifications:
    - target: {fileID: 4250806133934232, guid: 486130d0227fb4621bf1687de7ed1656, type: 3}
      propertyPath: m_LocalPosition.x
      value: 15
      objectReference: {fileID: 0}
    - target: {fileID: 4250806133934232, guid: 486130d0227fb4621bf1687de7ed1656, type: 3}
      propertyPath: m_LocalPosition.y
      value: 0
      objectReference: {fileID: 0}
    - target: {fileID: 4250806133934232, guid: 486130d0227fb4621bf1687de7ed1656, type: 3}
      propertyPath: m_LocalPosition.z
      value: -25
      objectReference: {fileID: 0}
    - target: {fileID: 4250806133934232, guid: 486130d0227fb4621bf1687de7ed1656, type: 3}
      propertyPath: m_LocalRotation.x
      value: -0
      objectReference: {fileID: 0}
    - target: {fileID: 4250806133934232, guid: 486130d0227fb4621bf1687de7ed1656, type: 3}
      propertyPath: m_LocalRotation.y
      value: -0
      objectReference: {fileID: 0}
    - target: {fileID: 4250806133934232, guid: 486130d0227fb4621bf1687de7ed1656, type: 3}
      propertyPath: m_LocalRotation.z
      value: -0
      objectReference: {fileID: 0}
    - target: {fileID: 4250806133934232, guid: 486130d0227fb4621bf1687de7ed1656, type: 3}
      propertyPath: m_LocalRotation.w
      value: 1
      objectReference: {fileID: 0}
    - target: {fileID: 4250806133934232, guid: 486130d0227fb4621bf1687de7ed1656, type: 3}
      propertyPath: m_RootOrder
      value: 8
      objectReference: {fileID: 0}
    m_RemovedComponents: []
  m_SourcePrefab: {fileID: 100100000, guid: 486130d0227fb4621bf1687de7ed1656, type: 3}
--- !u!4 &1519404169 stripped
Transform:
  m_CorrespondingSourceObject: {fileID: 4250806133934232, guid: 486130d0227fb4621bf1687de7ed1656,
    type: 3}
  m_PrefabInstance: {fileID: 1519404168}
  m_PrefabAsset: {fileID: 0}
--- !u!1001 &1572570396
PrefabInstance:
  m_ObjectHideFlags: 0
  serializedVersion: 2
  m_Modification:
    m_TransformParent: {fileID: 426132720}
    m_Modifications:
    - target: {fileID: 4182514132755620, guid: 8a2c24082d1514742a0acda26632f9c1, type: 3}
      propertyPath: m_LocalPosition.x
      value: 90
      objectReference: {fileID: 0}
    - target: {fileID: 4182514132755620, guid: 8a2c24082d1514742a0acda26632f9c1, type: 3}
      propertyPath: m_LocalPosition.y
      value: 0
      objectReference: {fileID: 0}
    - target: {fileID: 4182514132755620, guid: 8a2c24082d1514742a0acda26632f9c1, type: 3}
      propertyPath: m_LocalPosition.z
      value: 0
      objectReference: {fileID: 0}
    - target: {fileID: 4182514132755620, guid: 8a2c24082d1514742a0acda26632f9c1, type: 3}
      propertyPath: m_LocalRotation.x
      value: -0
      objectReference: {fileID: 0}
    - target: {fileID: 4182514132755620, guid: 8a2c24082d1514742a0acda26632f9c1, type: 3}
      propertyPath: m_LocalRotation.y
      value: -0
      objectReference: {fileID: 0}
    - target: {fileID: 4182514132755620, guid: 8a2c24082d1514742a0acda26632f9c1, type: 3}
      propertyPath: m_LocalRotation.z
      value: -0
      objectReference: {fileID: 0}
    - target: {fileID: 4182514132755620, guid: 8a2c24082d1514742a0acda26632f9c1, type: 3}
      propertyPath: m_LocalRotation.w
      value: 1
      objectReference: {fileID: 0}
    - target: {fileID: 4182514132755620, guid: 8a2c24082d1514742a0acda26632f9c1, type: 3}
      propertyPath: m_RootOrder
      value: 7
      objectReference: {fileID: 0}
    m_RemovedComponents: []
  m_SourcePrefab: {fileID: 100100000, guid: 8a2c24082d1514742a0acda26632f9c1, type: 3}
--- !u!4 &1572570397 stripped
Transform:
  m_CorrespondingSourceObject: {fileID: 4182514132755620, guid: 8a2c24082d1514742a0acda26632f9c1,
    type: 3}
  m_PrefabInstance: {fileID: 1572570396}
  m_PrefabAsset: {fileID: 0}
--- !u!1001 &1896076818
PrefabInstance:
  m_ObjectHideFlags: 0
  serializedVersion: 2
  m_Modification:
    m_TransformParent: {fileID: 426132720}
    m_Modifications:
    - target: {fileID: 4409284902174072, guid: f9e299acd82704891a58d65c21012ec0, type: 3}
      propertyPath: m_LocalPosition.x
      value: 87
      objectReference: {fileID: 0}
    - target: {fileID: 4409284902174072, guid: f9e299acd82704891a58d65c21012ec0, type: 3}
      propertyPath: m_LocalPosition.y
      value: 0.5
      objectReference: {fileID: 0}
    - target: {fileID: 4409284902174072, guid: f9e299acd82704891a58d65c21012ec0, type: 3}
      propertyPath: m_LocalPosition.z
      value: -25
      objectReference: {fileID: 0}
    - target: {fileID: 4409284902174072, guid: f9e299acd82704891a58d65c21012ec0, type: 3}
      propertyPath: m_LocalRotation.x
      value: -0
      objectReference: {fileID: 0}
    - target: {fileID: 4409284902174072, guid: f9e299acd82704891a58d65c21012ec0, type: 3}
      propertyPath: m_LocalRotation.y
      value: 1
      objectReference: {fileID: 0}
    - target: {fileID: 4409284902174072, guid: f9e299acd82704891a58d65c21012ec0, type: 3}
      propertyPath: m_LocalRotation.z
      value: -0
      objectReference: {fileID: 0}
    - target: {fileID: 4409284902174072, guid: f9e299acd82704891a58d65c21012ec0, type: 3}
      propertyPath: m_LocalRotation.w
      value: 0
      objectReference: {fileID: 0}
    - target: {fileID: 4409284902174072, guid: f9e299acd82704891a58d65c21012ec0, type: 3}
      propertyPath: m_RootOrder
      value: 1
      objectReference: {fileID: 0}
    - target: {fileID: 4409284902174072, guid: f9e299acd82704891a58d65c21012ec0, type: 3}
      propertyPath: m_LocalEulerAnglesHint.y
      value: 180
      objectReference: {fileID: 0}
    m_RemovedComponents: []
  m_SourcePrefab: {fileID: 100100000, guid: f9e299acd82704891a58d65c21012ec0, type: 3}
--- !u!4 &1896076819 stripped
Transform:
  m_CorrespondingSourceObject: {fileID: 4409284902174072, guid: f9e299acd82704891a58d65c21012ec0,
    type: 3}
  m_PrefabInstance: {fileID: 1896076818}
  m_PrefabAsset: {fileID: 0}
--- !u!1001 &1993938505
PrefabInstance:
  m_ObjectHideFlags: 0
  serializedVersion: 2
  m_Modification:
    m_TransformParent: {fileID: 426132720}
    m_Modifications:
    - target: {fileID: 4734625616025880, guid: b73fb0b5988264939bb62cc7fdb74f52, type: 3}
      propertyPath: m_LocalPosition.x
      value: 0
      objectReference: {fileID: 0}
    - target: {fileID: 4734625616025880, guid: b73fb0b5988264939bb62cc7fdb74f52, type: 3}
      propertyPath: m_LocalPosition.y
      value: 0
      objectReference: {fileID: 0}
    - target: {fileID: 4734625616025880, guid: b73fb0b5988264939bb62cc7fdb74f52, type: 3}
      propertyPath: m_LocalPosition.z
      value: -25
      objectReference: {fileID: 0}
    - target: {fileID: 4734625616025880, guid: b73fb0b5988264939bb62cc7fdb74f52, type: 3}
      propertyPath: m_LocalRotation.x
      value: -0
      objectReference: {fileID: 0}
    - target: {fileID: 4734625616025880, guid: b73fb0b5988264939bb62cc7fdb74f52, type: 3}
      propertyPath: m_LocalRotation.y
      value: -0
      objectReference: {fileID: 0}
    - target: {fileID: 4734625616025880, guid: b73fb0b5988264939bb62cc7fdb74f52, type: 3}
      propertyPath: m_LocalRotation.z
      value: -0
      objectReference: {fileID: 0}
    - target: {fileID: 4734625616025880, guid: b73fb0b5988264939bb62cc7fdb74f52, type: 3}
      propertyPath: m_LocalRotation.w
      value: 1
      objectReference: {fileID: 0}
    - target: {fileID: 4734625616025880, guid: b73fb0b5988264939bb62cc7fdb74f52, type: 3}
      propertyPath: m_RootOrder
      value: 9
      objectReference: {fileID: 0}
    m_RemovedComponents: []
  m_SourcePrefab: {fileID: 100100000, guid: b73fb0b5988264939bb62cc7fdb74f52, type: 3}
--- !u!4 &1993938506 stripped
Transform:
  m_CorrespondingSourceObject: {fileID: 4734625616025880, guid: b73fb0b5988264939bb62cc7fdb74f52,
    type: 3}
  m_PrefabInstance: {fileID: 1993938505}
  m_PrefabAsset: {fileID: 0}
--- !u!1001 &2124615160
PrefabInstance:
  m_ObjectHideFlags: 0
  serializedVersion: 2
  m_Modification:
    m_TransformParent: {fileID: 426132720}
    m_Modifications:
    - target: {fileID: 4076217895820424, guid: bb2e57a5c4c104ff79b156f77695bc46, type: 3}
      propertyPath: m_LocalPosition.x
      value: 72
      objectReference: {fileID: 0}
    - target: {fileID: 4076217895820424, guid: bb2e57a5c4c104ff79b156f77695bc46, type: 3}
      propertyPath: m_LocalPosition.y
      value: 0
      objectReference: {fileID: 0}
    - target: {fileID: 4076217895820424, guid: bb2e57a5c4c104ff79b156f77695bc46, type: 3}
      propertyPath: m_LocalPosition.z
      value: -25
      objectReference: {fileID: 0}
    - target: {fileID: 4076217895820424, guid: bb2e57a5c4c104ff79b156f77695bc46, type: 3}
      propertyPath: m_LocalRotation.x
      value: -0
      objectReference: {fileID: 0}
    - target: {fileID: 4076217895820424, guid: bb2e57a5c4c104ff79b156f77695bc46, type: 3}
      propertyPath: m_LocalRotation.y
      value: -0
      objectReference: {fileID: 0}
    - target: {fileID: 4076217895820424, guid: bb2e57a5c4c104ff79b156f77695bc46, type: 3}
      propertyPath: m_LocalRotation.z
      value: -0
      objectReference: {fileID: 0}
    - target: {fileID: 4076217895820424, guid: bb2e57a5c4c104ff79b156f77695bc46, type: 3}
      propertyPath: m_LocalRotation.w
      value: 1
      objectReference: {fileID: 0}
    - target: {fileID: 4076217895820424, guid: bb2e57a5c4c104ff79b156f77695bc46, type: 3}
      propertyPath: m_RootOrder
      value: 11
      objectReference: {fileID: 0}
    m_RemovedComponents: []
  m_SourcePrefab: {fileID: 100100000, guid: bb2e57a5c4c104ff79b156f77695bc46, type: 3}
--- !u!4 &2124615161 stripped
Transform:
  m_CorrespondingSourceObject: {fileID: 4076217895820424, guid: bb2e57a5c4c104ff79b156f77695bc46,
    type: 3}
  m_PrefabInstance: {fileID: 2124615160}
  m_PrefabAsset: {fileID: 0}
