# 3ds Max Wavefront OBJ Exporter v0.97b - (c)2007 guruware
# www.cadnav.com

newmtl wire_000000000
	Ns 32
	d 1
	Tr 0
	Tf 1 1 1
	illum 2
	Ka 0.0000 0.0000 0.0000
	Kd 0.0000 0.0000 0.0000
	Ks 0.3500 0.3500 0.3500
