%YAML 1.1
%TAG !u! tag:unity3d.com,2011:
--- !u!1001 &1699670984255937707
PrefabInstance:
  m_ObjectHideFlags: 0
  serializedVersion: 2
  m_Modification:
    m_TransformParent: {fileID: 0}
    m_Modifications:
    - target: {fileID: 100078, guid: 5a35c5f0a89b9654d897ccd7c8f81bd0, type: 3}
      propertyPath: m_Name
      value: Skeleton@Skin
      objectReference: {fileID: 0}
    - target: {fileID: 400078, guid: 5a35c5f0a89b9654d897ccd7c8f81bd0, type: 3}
      propertyPath: m_LocalPosition.x
      value: 0.007
      objectReference: {fileID: 0}
    - target: {fileID: 400078, guid: 5a35c5f0a89b9654d897ccd7c8f81bd0, type: 3}
      propertyPath: m_LocalPosition.y
      value: -0.063
      objectReference: {fileID: 0}
    - target: {fileID: 400078, guid: 5a35c5f0a89b9654d897ccd7c8f81bd0, type: 3}
      propertyPath: m_LocalPosition.z
      value: 0.397
      objectReference: {fileID: 0}
    - target: {fileID: 400078, guid: 5a35c5f0a89b9654d897ccd7c8f81bd0, type: 3}
      propertyPath: m_LocalRotation.x
      value: 0
      objectReference: {fileID: 0}
    - target: {fileID: 400078, guid: 5a35c5f0a89b9654d897ccd7c8f81bd0, type: 3}
      propertyPath: m_LocalRotation.y
      value: 1
      objectReference: {fileID: 0}
    - target: {fileID: 400078, guid: 5a35c5f0a89b9654d897ccd7c8f81bd0, type: 3}
      propertyPath: m_LocalRotation.z
      value: 0
      objectReference: {fileID: 0}
    - target: {fileID: 400078, guid: 5a35c5f0a89b9654d897ccd7c8f81bd0, type: 3}
      propertyPath: m_LocalRotation.w
      value: 0
      objectReference: {fileID: 0}
    - target: {fileID: 400078, guid: 5a35c5f0a89b9654d897ccd7c8f81bd0, type: 3}
      propertyPath: m_RootOrder
      value: 0
      objectReference: {fileID: 0}
    - target: {fileID: 400078, guid: 5a35c5f0a89b9654d897ccd7c8f81bd0, type: 3}
      propertyPath: m_LocalEulerAnglesHint.x
      value: 0
      objectReference: {fileID: 0}
    - target: {fileID: 400078, guid: 5a35c5f0a89b9654d897ccd7c8f81bd0, type: 3}
      propertyPath: m_LocalEulerAnglesHint.y
      value: 180
      objectReference: {fileID: 0}
    - target: {fileID: 400078, guid: 5a35c5f0a89b9654d897ccd7c8f81bd0, type: 3}
      propertyPath: m_LocalEulerAnglesHint.z
      value: 0
      objectReference: {fileID: 0}
    - target: {fileID: 9500000, guid: 5a35c5f0a89b9654d897ccd7c8f81bd0, type: 3}
      propertyPath: m_Controller
      value: 
      objectReference: {fileID: 9100000, guid: 96466cd5d454fdb70bbcc1a588c4a80c, type: 2}
    m_RemovedComponents: []
  m_SourcePrefab: {fileID: 100100000, guid: 5a35c5f0a89b9654d897ccd7c8f81bd0, type: 3}
